<svg xmlns="http://www.w3.org/2000/svg" width="12" height="9" viewBox="0 0 12 9">
    <path fill="#FFF" fill-rule="evenodd" d="M4.243 6.192L9.899.536a1 1 0 1 1 1.415 1.414L4.95 8.314a1 1 0 0 1-1.414 0L.707 5.485a1 1 0 1 1 1.414-1.414l2.122 2.121z"/>
</svg>
